.......
----------------------------------------------------------------------
Ran 7 tests in 5.006s

OK
Name             Stmts   Miss Branch BrPart  Cover   Missing
------------------------------------------------------------
Netflix.py          47      4     10      3    88%   23-24, 90, 92, 22->23, 89->90, 91->92
TestNetflix.py      37      0      0      0   100%
------------------------------------------------------------
TOTAL               84      4     10      3    93%
