10679:
4.277966999999999
3.7929530000000007
4.356269
3.9039219999999997
4.411754999999999
1068:
3.766909
2.851941
3.4188210000000003
2.599985
2.9045200000000007
3.3526250000000006
3.2173469999999993
3.6518610000000002
3.8351170000000003
3.4819250000000004
3.5388829999999993
3.8451969999999998
2.7439790000000004
3.885928
3.864821000000001
3.519259
3.4984259999999994
4.052141000000001
3.1475159999999995
3.4759090000000006
3.2322560000000005
3.727105
3.0450730000000004
3.6971249999999998
2.8646710000000004
3.5146819999999996
3.4002230000000004
3.699083000000001
2.9112729999999996
3.330513
3.5809050000000004
3.5835930000000005
2.9353630000000006
3.4304170000000003
3.002453000000001
2.4853300000000003
2.8754220000000004
3.435899
4.094326
3.989157999999999
3.5217600000000004
3.1485450000000004
3.482164000000001
3.3466940000000003
3.669473
2.7759430000000007
4.224297
2.910381
3.2757429999999994
2.6412199999999997
3.4801069999999994
3.3427689999999997
3.585625000000001
3.3984620000000003
3.3103749999999996
2.8243780000000003
2.9558730000000004
3.553968000000001
3.6097089999999996
3.1936789999999995
3.651371
3.285608
2.865374
3.296984
3.702750000000001
3.1822160000000004
3.5700019999999997
2.6981579999999994
3.331405
3.084053
3.3207010000000006
3.5059389999999997
3.009393
3.203461000000001
4.331337
3.4241730000000006
3.298689999999999
3.6876429999999996
3.426068000000001
3.028125
3.376005000000001
3.0780770000000004
2.331473
3.669473
3.4284610000000004
3.3956859999999995
2.9093610000000005
2.6868220000000003
3.057691
2.877377
10680:
3.1604399999999995
3.294003
2.960395
2.8535429999999993
2.6143859999999997
3.4153150000000005
3.1182790000000002
3.2172909999999995
2.5447229999999994
2.915616
3.362687
2.9181489999999997
3.0321049999999996
2.9368730000000003
3.2083709999999996
2.929175
2.6134069999999996
3.107575999999999
2.8979749999999997
3.419574999999999
4.211543
3.1557429999999993
1.8155160000000006
1.789199
2.3738279999999996
3.529974
3.2378869999999997
2.9020959999999993
3.1379200000000003
3.2931110000000006
1.9209880000000004
3.4603219999999997
2.9459089999999994
3.028187000000001
3.3657510000000004
2.861688
3.841095
2.8301629999999998
2.6873839999999998
3.6788800000000004
3.4929360000000003
3.1771510000000003
10681:
3.7275209999999994
10682:
4.120402
4.144284000000001
4.062941
10683:
3.1168329999999997
3.4267879999999993
3.705098999999999
4.963143
3.590574
3.967404
3.8829439999999993
3.6901209999999995
4.032626
4.420819999999999
4.4568449999999995
10684:
1.9072569999999995
2.6234159999999997
10685:
2.718495999999999
3.328018
2.3238649999999996
2.8933230000000005
3.6549310000000004
2.9180019999999995
2.992745
3.846246
4.279534999999999
3.299123999999999
3.2744289999999996
3.6995310000000003
3.3284590000000005
2.6973150000000006
3.287344000000001
3.794243
10686:
4.294651999999999
3.6113289999999996
3.9399290000000002
4.875963
10688:
2.4108529999999995
10689:
3.4488249999999994
2.7902950000000004
3.7931369999999998
2.8366940000000005
1069:
4.237196
4.595439000000001
4.620063
3.475891999999999
4.249821
4.414704
4.199346
3.9057320000000004
3.4332390000000004
3.9356210000000003
4.453951999999999
3.1713929999999992
5
4.602916
3.2790660000000003
3.3378869999999994
4.3397760000000005
3.945512
4.345128
3.498241
3.988023
4.13469
4.242981
3.6362299999999994
4.394683000000001
4.604958000000001
3.929456
3.4810019999999993
4.77915
4.226166
3.7019219999999997
4.131048
3.642232
3.637715
3.8902079999999994
4.32372
3.4894170000000004
3.4272600000000004
3.8633369999999996
4.237501
4.646835
3.824009
3.806083
3.7639179999999994
3.439374999999999
3.3295819999999994
3.376322
4.091307
10690:
2.8898260000000002
3.541989
2.730498
10691:
3.1325259999999995
3.306012
3.6195579999999996
3.2876000000000003
3.0977379999999997
10692:
4.109274
3.6352600000000006
4.002021999999999
4.106591
4.047324
4.127854999999999
3.797815
4.053311
3.8684129999999994
3.3213679999999997
4.047574999999999
3.7639189999999996
3.4917490000000004
4.294522
3.4981030000000004
3.8488869999999995
3.6018169999999996
4.9395549999999995
4.165050999999999
4.2009989999999995
3.707773999999999
3.435155999999999
4.259557
3.88744
4.157291
3.6595549999999992
10693:
3.4408950000000003
1.5781029999999996
3.808102999999999
4.020553
3.6999809999999993
3.528015
3.5743990000000005
4.237786
3.720707
3.0855869999999994
10694:
3.6506380000000007
4.475318000000001
3.230708
4.3744250000000005
4.1608160000000005
4.909392
3.691972
3.9003300000000003
4.518508
3.0083520000000004
3.5753650000000006
3.344041
3.5685279999999997
4.316024
3.919976
3.786176
10695:
3.090852999999999
2.665031
3.5891729999999997
3.4485080000000004
3.341899999999999
2.9336759999999993
2.8876850000000003
2.691313
3.834231
2.950259
2.892156
3.199095
4.307663
2.8993199999999995
3.5389049999999997
3.173259
3.384201
3.605879
3.606771
3.139095
3.217165999999999
3.359687
3.7530589999999995
3.260674999999999
3.1826
3.443535
2.8191349999999993
3.7320800000000007
3.0710739999999994
3.5371949999999996
3.3258279999999996
3.4922519999999997
3.593114
3.03841
3.2459100000000003
2.9912909999999995
2.6266739999999995
2.7587270000000004
2.9453060000000004
3.933828
3.3994169999999997
3.045463
2.7522349999999998
3.4381829999999995
3.0730639999999996
2.330325
3.497947
2.700207
3.634423000000001
3.5086509999999995
3.5371949999999996
2.645195
3.293679
2.9823709999999997
3.4752989999999997
3.9148590000000008
3.1236749999999995
3.0590070000000003
2.9261749999999997
3.5037279999999997
3.7884279999999997
3.3499809999999997
3.7066749999999997
2.3499429999999997
3.4007189999999996
2.961895
2.5113949999999994
3.441751
2.8006140000000004
2.9752350000000005
2.8638630000000003
3.3043829999999996
2.9279590000000004
3.5290469999999994
3.649273
3.3125989999999996
2.280258999999999
2.937770999999999
2.66157
2.693816
3.2401589999999993
3.0533659999999996
3.481891
3.1501919999999997
3.1396440000000005
3.5184740000000003
4.095632
3.405997
3.300826
2.4696
3.4447850000000004
3.054817
3.644731
3.8154189999999994
2.952878
2.7442070000000003
3.4061189999999995
2.9912909999999995
2.9002269999999992
3.3347110000000004
2.9756480000000005
3.2355419999999997
2.868195
3.0935379999999997
3.108605
4.050524
2.0395270000000005
3.115715
3.4123149999999995
3.4943790000000003
2.038374
2.234649
3.571090999999999
3.269595
3.5352569999999996
3.011807
3.1656320000000004
3.347199
3.6219349999999997
2.7263669999999998
3.666987999999999
3.001995000000001
2.785233999999999
3.180395
3.7846449999999994
3.385364
3.7703799999999994
3.4519130000000002
3.9886040000000005
3.4997310000000006
3.0341069999999997
2.9003069999999997
2.7995850000000004
2.5603809999999996
2.8867650000000005
3.1250910000000003
3.4988390000000003
3.3373870000000005
3.0403510000000002
3.3410659999999996
3.129551
3.267189
3.1108190000000002
3.0011029999999996
2.955274
3.4609120000000004
3.4506740000000002
3.8021189999999994
2.0983990000000006
3.243727
2.791854
3.1072509999999998
3.2927720000000003
4.3684899999999995
3.0055630000000004
3.5166790000000008
3.5577109999999994
3.0242250000000004
2.954719
3.5300590000000005
3.2740549999999997
3.216075000000001
3.3226309999999994
2.528135
3.1750429999999996
3.274756
3.0403510000000002
3.8520710000000005
3.7468629999999994
3.009424
3.481434000000001
1
3.1848550000000007
3.641998
3.0662190000000002
3.1016259999999996
10696:
3.575100999999999
2.5762399999999994
3.550854
3.552979999999999
3.2514839999999996
2.5791389999999996
3.6316379999999997
3.525328
1.9786000000000001
3.865844
3.4726999999999997
3.395988
2.7042949999999992
2.799716
2.950914
2.759606
3.5119480000000003
3.79535
3.6063479999999988
3.136939999999999
3.2037239999999994
3.4751079999999996
2.950227999999999
3.5378159999999994
3.3655860000000004
3.81182
3.463153
10697:
3.4542859999999997
3.292312
2.3739479999999995
3.7634190000000007
10698:
3.0770679999999997
10699:
3.195717000000001
3.8413880000000002
3.5543009999999997
3.5935490000000003
3.8705480000000003
2.7024410000000003
3.9753730000000003
3.662262
3.9940570000000006
3.368423
4.044425
4.213676
3.781268
3.630090000000001
4.659853
3.7456110000000002
3.9012890000000002
3.966699
3.731809
4.215133000000001
2.8454690000000005
3.998069
3.4320969999999997
4.746303000000001
3.349659000000001
107:
3.2435719999999995
3.2271099999999997
3.7658630000000004
3.153047
3.522781
3.2289450000000004
3.9702340000000005
4.229759999999999
4.161122000000001
1070:
2.254009000000001
3.1070969999999996
2.861459
3.609547000000001
2.6995899999999997
10700:
1.7996559999999997
2.3535880000000002
1.8053670000000004
2.260731
1.5890279999999999
10701:
3.214505
3.1146009999999995
2.518745000000001
3.1406030000000005
3.7048499999999995
3.8335529999999993
2.8693669999999996
3.6908330000000005
3.4286450000000004
10702:
3.6283779999999997
3.7621780000000005
3.721145999999999
4.190338000000001
4.393954
4.546246
3.1556180000000005
3.8255099999999995
3.9477139999999995
3.8861659999999993
3.892714
3.474119
3.67406
4.106852
3.4619790000000004
3.2537579999999995
3.6802650000000003
3.461717
3.75106
3.177938
3.5507739999999997
3.474182
3.6588089999999998
4.358712
3.780702
3.777583999999999
3.497254
3.9807180000000004
3.9378079999999995
3.3138259999999997
4.2697259999999995
3.217663
3.108154
3.5097419999999993
3.4948940000000004
3.380864
2.7867290000000002
3.8883829999999993
3.5951780000000007
4.304882999999999
4.181418
3.187112999999999
4.006586
3.5604319999999996
3.2492780000000003
3.0846399999999994
3.1438710000000007
3.5450989999999996
3.3413790000000008
3.326543
3.878138
3.671194
3.302168
3.4784500000000005
3.7648539999999997
4.019963
3.801426
4.197474
4.1100579999999995
3.526089
3.4634859999999996
10703:
1.4567449999999997
2.8313170000000003
1.6099669999999993
2.3683690000000004
2.393345
1.7903529999999996
10704:
2.998087999999999
3.0424160000000002
3.6697420000000003
1.8823919999999994
3.33856
2.8172699999999997
3.744604
3.879112
2.7045269999999997
3.949579999999999
3.199408
3.031416
2.831581999999999
10707:
2.403244
2.9504649999999994
2.930313999999999
2.698575999999999
3.5154499999999995
10708:
1.587033
2.5758900000000002
2.724126
10709:
3.0272259999999998
3.234293
2.9520049999999998
1071:
2.9147739999999986
2.388834
2.076434999999999
2.79491
2.7096659999999995
2.6330199999999992
2.891603
3.691617999999999
2.174466
2.4010339999999992
2.9083170000000003
2.5159569999999993
2.451877999999999
10710:
3.582517
1.0814180000000002
1.9184470000000005
3.2959870000000002
2.573284
3.0615360000000003
3.5470200000000007
4.02888
2.971444000000001
10711:
2.8607549999999993
1.8494380000000001
1.7375930000000004
3.4448809999999996
2.938738
3.3551339999999996
3.147392000000001
2.577712
3.0390820000000005
2.626195
2.4561610000000007
3.245279000000001
10712:
3.661455
2.3436509999999995
3.942646
3.290933
4.027386000000001
4.218274
4.643318999999999
3.4094230000000003
3.366428
3.1165600000000007
3.947998
4.069894
3.6192460000000004
3.927154
3.1986559999999997
2.9681950000000006
2.9508970000000003
4.248733
2.8789490000000004
3.690053
4.3500879999999995
3.9375469999999995
3.028346
3.440663999999999
3.182747
4.278038
3.1758110000000004
10713:
3.0695119999999996
3.076864999999999
3.2479119999999986
3.159966
3.1587120000000004
3.6983099999999993
2.912305999999999
3.3518090000000003
10714:
2.3473489999999995
2.9226649999999994
10715:
3.176468
2.601
2.7654669999999992
10716:
3.2145539999999997
3.6219210000000004
3.8908319999999996
3.030754
10717:
4.224508999999999
4.6119270000000006
10718:
2.0383439999999995
10719:
2.510174000000001
2.306592
1.9231550000000004
1.3124089999999997
1.5702819999999997
2.488295
1.1323189999999999
1072:
4.174143999999999
4.568087999999999
4.479048
3.8135019999999997
4.279980999999999
4.883937999999999
3.9606139999999996
4.782387999999999
4.295566999999999
3.7041139999999997
3.925598
4.209549999999999
4.562453999999999
4.6870449999999995
5
4.042180999999999
4.367433999999999
5
3.775772
4.954184999999999
4.5957859999999995
4.168093
4.614706
4.451852999999999
4.052324
4.118264
4.783097
4.128455
4.717802
4.5482499999999995
4.53959
4.3547579999999995
5
3.977404999999999
4.611274999999999
5
4.73583
3.8696979999999996
3.6046569999999996
4.861917999999999
4.575269999999999
4.292957999999999
10720:
4.77079
3.8764580000000004
4.3817900000000005
3.9250170000000004
3.1292339999999994
4.82779
3.93579
10721:
4.378534
3.2409539999999994
2.6828209999999997
3.5223079999999998
3.5726869999999993
3.22607
2.6989159999999996
2.9094100000000003
2.5712029999999997
3.409066
2.938529
4.127882
3.918659999999999
3.1655539999999993
3.535481
3.211797999999999
3.646464
2.8746219999999996
3.0251899999999994
3.4097999999999997
3.4954539999999996
3.324765
3.021351
3.0442300000000007
3.1966340000000004
10722:
3.746771999999999
2.073467
3.2490360000000003
3.4729279999999996
10723:
2.2583640000000003
1.8850059999999997
10724:
3.460647
3.375052
4.517533
3.639500000000001
4.247364
3.666733
3.920197
3.692239
3.2059879999999996
3.511927
3.8198240000000006
3.97736
3.303578
3.533352
3.8990720000000003
3.0782490000000005
3.2959580000000006
3.3085649999999998
3.636767
3.613632000000001
3.3340170000000002
10725:
3.5390040000000003
3.870941
10726:
3.9737549999999997
3.7969479999999995
4.217568999999999
4.4921750000000005
3.339543
3.5603240000000005
4.822514
3.6437150000000003
3.579491
4.277692999999999
3.675542
10728:
2.3812289999999994
10729:
3.7367799999999995
4.008260999999999
4.0413440000000005
5
3.372527999999999
3.3570829999999994
4.190841999999999
3.892380000000001
3.2024719999999993
4.209353999999999
3.917846999999999
4.246504
4.715696
3.948251000000001
3.7175480000000007
3.073856
4.256695000000001
4.353775
3.4092949999999993
3.724532
3.8176489999999994
4.3381929999999995
4.0154760000000005
3.77642
3.9038880000000002
4.563164
4.534510999999999
4.294672
2.937442
4.592175000000001
4.607003
4.655279
4.339281
3.1428709999999995
4.261309
4.417768
4.053624
3.801144999999999
4.508666000000001
4.188263999999999
3.8080220000000002
3.605156
3.8272579999999996
4.688044
4.2081479999999996
4.429851
4.64042
3.6268260000000003
4.006593
4.066266
3.80187
3.3354799999999996
4.122639
4.108244
4.014584000000001
5
4.6806339999999995
3.925384
3.77642
4.037876
4.223312000000001
3.1716440000000006
3.575582
4.4784180000000005
3.562214
4.945754
4.229203
3.4365680000000003
4.478574
3.1630149999999997
4.001317
4.282184
4.781492999999999
4.207844000000001
4.350645000000001
2.493754
4.248288
3.9274069999999996
4.407901
4.162719
4.116606999999999
4.166224000000001
3.757372
3.854036
3.9268030000000005
4.08862
4.007842999999999
3.361814
3.8621730000000003
3.8888120000000006
4.068996
3.9259700000000004
4.201904000000001
4.070821
4.352755999999999
3.796044000000001
3.0930609999999996
3.4122969999999997
4.122516
4.349968
3.809424000000001
3.982736000000001
3.268815
3.928592
4.48621
4.339272
3.468680000000001
3.486116
3.8804549999999995
4.295564
3.2299860000000002
4.29824
5
4.383872
4.303591999999999
3.68316
4.246079
3.600696
3.146990999999999
4.789370000000001
4.325664000000001
3.296431
3.3500440000000005
3.56234
3.9021920000000003
4.002096
3.5667999999999997
3.872364
4.697514
3.5528470000000008
5
3.479679999999999
3.78088
4.412513000000001
4.889333999999999
4.615792
3.696586000000001
4.50497
3.605156
4.152127999999999
3.654955000000001
4.202000999999999
3.852296000000001
4.2032549999999995
5
3.823442
3.0742399999999996
3.4156560000000002
3.7407400000000006
3.6015879999999996
3.7271090000000004
5
3.9180770000000003
3.6504020000000006
4.402604
4.4244390000000005
4.173478
4.2669760000000005
4.031532
4.460313
4.121168
4.440068
3.5637739999999996
4.4316699999999996
4.4828779999999995
4.059684
4.67288
2.9343079999999997
3.356
4.195161
4.092188
4.5611250000000005
3.7947599999999992
3.5596640000000006
4.422350000000001
4.3187560000000005
3.9137880000000003
5
3.9907189999999995
3.433892
4.171106999999999
2.721184
4.087608
3.7407400000000006
3.9405479999999997
3.9634399999999994
3.903976
4.189575
3.547963
3.8174520000000003
4.516907999999999
4.309532
3.8535650000000006
3.1949229999999993
4.371281
4.062912
3.7871520000000007
3.9199770000000003
3.431216
4.157304
3.605156
4.063838
3.9503600000000008
4.665743999999999
3.581964
3.3548599999999995
4.390221
3.648103
4.063643999999999
2.6804349999999992
3.7758530000000006
3.929702999999999
3.764824
4.183248
4.3258920000000005
3.4917099999999994
4.53908
5
3.514666
3.7880160000000007
4.861231999999999
3.7719330000000006
4.082376
3.589575999999999
3.8907750000000005
4.54354
3.898624
3.996252
3.9324399999999997
3.7857850000000006
3.4399250000000006
3.689896
3.9434689999999994
4.516508
4.187016
3.38394
3.9218160000000006
1073:
4.992698999999999
4.06653
3.937105
3.9736769999999995
3.91312
4.114613
4.242169
3.8239339999999995
4.424137
4.532961
4.1837740000000005
4.333047
3.5205409999999997
4.194919
4.661409
4.144941
3.846865
4.515809
4.101603
4.298111
3.974569
3.7016739999999997
3.9406730000000003
3.9834889999999996
4.247520999999999
3.8229290000000002
4.032549
3.6944809999999997
3.8134929999999994
4.63676
3.8200909999999997
4.58517
4.032549
4.4205689999999995
3.450965
3.584764999999999
3.747109
4.544556999999999
4.427705
3.710235
4.552585
3.5624649999999995
5
3.9852729999999994
4.3429649999999995
4.498819999999999
4.4839009999999995
4.061985
3.9433489999999995
3.432232999999999
4.2511660000000004
3.737342
4.130668999999999
3.8754029999999995
3.7515349999999996
4.243952999999999
4.502633
4.3429649999999995
3.8885769999999997
3.7172029999999996
3.5321369999999996
4.125283
3.865736
4.855865
4.294797
4.005789
3.8602789999999993
4.141986
4.179670000000001
4.577561
4.2487509999999995
4.177053
4.303618999999999
4.450146
4.565916
4.173485
4.54744
3.84206
4.693983
4.274401
4.3616969999999995
4.200245
3.7783290000000003
3.466355
4.20503
4.1618889999999995
3.725498
4.480333
4.532069
3.291297
3.7810050000000004
4.090529
4.196676999999999
3.9068310000000004
4.082501
5
4.124023
4.899909999999999
3.7893979999999994
3.8144199999999993
4.6979809999999995
4.164564999999999
3.690913
4.667446
3.9406730000000003
4.563742
3.920177
4.332306
4.287487
4.882625
3.7518200000000004
3.667966
3.9943410000000004
3.562685
4.410756999999999
3.6760209999999995
4.224329
4.745416999999999
3.696547
4.126912999999999
4.296205
3.07937
4.098955999999999
3.7269119999999996
3.967855
4.662300999999999
3.966442999999999
4.2334369999999995
4.168959
4.692629
3.237178
4.007738
3.41127
4.693632
4.253588000000001
4.067336999999999
4.435922
3.7942919999999996
4.126208999999999
5
4.569833999999999
3.8969650000000007
3.450965
4.806805
4.246762
4.1431569999999995
4.073580999999999
4.973248999999999
3.725034000000001
4.0655529999999995
3.9264009999999994
3.144729999999999
4.744365
3.7274850000000006
4.97933
4.031201
4.2480649999999995
3.927099
3.638660999999999
3.654789
4.842485
3.863960999999999
3.9531609999999997
3.939297
4.535637
4.321642
4.180983
3.7146489999999996
3.75587
3.3708159999999996
4.603429
3.533028999999999
3.968
3.845414
3.955836999999999
3.6179289999999993
3.754245
3.6257970000000004
4.781848999999999
4.363481
4.7684489999999995
3.913913
4.423809
4.307967
4.443368
3.835589999999999
4.231465
3.937105
4.74935
4.138697
4.322006999999999
4.186864999999999
3.265429
3.833632999999999
4.224329
4.391133
4.555346
3.904101
4.689202
4.381321000000001
4.196981999999999
3.581747
4.1318459999999995
3.7400779999999996
5
3.719215
4.146725
4.167733999999999
4.470520999999999
4.334045000000001
4.839809000000001
4.249305
4.009357
4.519581
3.7480010000000004
4.414325
3.657895
3.7573
4.396973999999999
4.028089
3.825722
4.011141
4.205597
3.2722750000000005
3.723917
4.594545
4.8073749999999995
4.312637
4.719389
3.8969650000000007
4.175548
4.712253
3.8889370000000003
4.039295
4.7211300000000005
3.8378820000000005
4.356344999999999
4.397336999999999
4.216725
4.744365
3.8459269999999997
3.7926010000000003
4.240426
4.573101
4.010858999999999
4.227897
4.276236
3.1084699999999996
4.572608999999999
4.210949
3.698371
4.735445
2.7819650000000005
4.002052999999999
2.856001
4.047966
4.772016999999999
3.2050159999999996
3.922833
3.9710010000000002
4.4022499999999996
4.214517
4.637325
3.869313
4.470942999999999
3.7730569999999997
4.452681
4.303221
4.212014999999999
4.535768
4.392383000000001
4.330596
3.7706299999999997
3.892505
3.840335999999999
4.810372999999999
4.383048
3.782789
4.197713999999999
3.9736769999999995
4.3429649999999995
3.946916999999999
4.231465
4.430381
5
4.196332
3.3181649999999996
3.5423339999999994
4.006754999999999
4.168261
4.273292
4.731876999999999
3.7337289999999994
3.8969650000000007
4.064661
3.7943849999999992
4.355288999999999
4.417001
3.525893
3.6142009999999996
3.3360060000000002
4.435174999999999
4.076257
4.466952999999999
3.991517
3.838985
4.502633
3.7826270000000006
3.4878679999999997
4.140063
4.253717
4.553476999999999
3.6400690000000004
4.788964999999999
3.712486
3.6204449999999992
4.0915859999999995
4.395524
4.229374
3.965039000000001
4.426621
3.8282809999999996
4.210949
4.156584999999999
3.4982409999999993
4.229703
3.905525999999999
4.089093
3.7415719999999997
4.891545
4.129081
3.995977
4.610564999999999
4.047467999999999
3.955335
3.354755
4.195784999999999
4.248635
3.326085
4.689953
4.204174999999999
3.8710970000000007
3.739973
4.464277
4.224329
4.090790999999999
3.3052019999999995
3.9379969999999993
4.2966239999999996
4.231465
4.130668999999999
3.8781869999999996
4.779153
3.7691239999999997
3.6043890000000003
4.829047
4.253765
3.305568
4.092313
3.7480010000000004
3.996416
4.3411979999999994
4.114579
4.327801
4.114613
3.839256
4.642962
4.955668999999999
3.540165
4.400945
4.423245
4.023383999999999
4.050371999999999
3.514297
4.004082
5
3.9128680000000005
4.0655529999999995
4.544556999999999
4.076257
4.411535
3.9157740000000008
4.458925
3.5954690000000005
3.626393
3.8229290000000002
4.127318
4.483009
4.150136000000001
2.802481
4.477539999999999
4.540096999999999
4.470520999999999
4.456249
3.9076689999999994
3.607373
4.763096999999999
4.159238
3.8425529999999997
3.535705000000001
4.308177
4.995017
3.8825019999999997
4.325125
4.3024949999999995
4.488373999999999
2.9291030000000005
4.326718
3.817386
4.167186999999999
4.274280999999999
4.2728209999999995
4.241277
4.164564999999999
5
3.325088
4.334045000000001
4.326909
4.733661
4.5124450000000005
4.323341
4.191324999999999
4.495365
4.080717
3.260077
4.069665
4.27393
4.169025
3.9854329999999996
3.9531609999999997
4.060200999999999
3.8898289999999998
3.925508999999999
4.714929
4.209658
3.8921200000000002
3.956276000000001
4.136913
4.4321649999999995
4.145835999999999
4.763096999999999
3.9074039999999997
4.168132999999999
3.707559
4.405957999999999
3.6478590000000004
4.654201
4.173253000000001
4.208273
4.113721
3.1586100000000004
4.108389
3.9076689999999994
4.094539
3.9900919999999998
3.7629340000000004
3.9368089999999993
4.228598
3.244286
3.901394
3.9441239999999995
3.450965
4.324668
4.018277
5
3.0204119999999994
4.138697
3.958886999999999
3.585845
3.7130650000000003
3.3020009999999997
3.9377489999999993
3.6068290000000003
3.830907
3.426881
3.8541489999999996
4.206904
4.067336999999999
4.177053
4.138697
4.699765
3.673965
4.135128999999999
4.332534
4.603429
3.6257970000000004
4.520795000000001
4.144049
3.7184739999999996
3.705185
4.540989
3.5941039999999997
4.296557999999999
4.144941
4.676572999999999
4.194001
4.533343
3.762389999999999
3.400901
4.1483039999999995
3.8755570000000006
4.174377
4.109203999999999
4.802345
3.60808
4.670329
4.996248
4.042785
3.8874460000000006
4.024367
4.005219
4.127722
3.8980869999999994
4.3759689999999996
4.107477
3.7648010000000003
3.450965
3.934366
3.9710010000000002
4.047712999999999
4.323653999999999
3.9754639999999988
4.179729
3.8426410000000004
3.768822
3.501715
4.076937999999999
3.2752409999999994
4.2390110000000005
3.961189
3.5303139999999997
3.944469
4.312069999999999
4.043062
3.5167649999999995
4.5944769999999995
5
0.87
